^C:\USERS\Владелец\SOURCE\REPOS\LAB4_SAOD\LAB4_SAOD\HASH_LIST.CPP
C:\USERS\Владелец\SOURCE\REPOS\LAB4_SAOD\LAB4_SAOD\HASH_LIST.H
C:\PROGRAM FILES (X86)\WINDOWS KITS\10\INCLUDE\10.0.18362.0\UCRT\STDIO.H
C:\PROGRAM FILES (X86)\WINDOWS KITS\10\INCLUDE\10.0.18362.0\UCRT\CORECRT.H
D:\VISUAL_STUDIO\VC\TOOLS\MSVC\14.24.28314\INCLUDE\VCRUNTIME.H
D:\VISUAL_STUDIO\VC\TOOLS\MSVC\14.24.28314\INCLUDE\SAL.H
D:\VISUAL_STUDIO\VC\TOOLS\MSVC\14.24.28314\INCLUDE\CONCURRENCYSAL.H
D:\VISUAL_STUDIO\VC\TOOLS\MSVC\14.24.28314\INCLUDE\VADEFS.H
C:\PROGRAM FILES (X86)\WINDOWS KITS\10\INCLUDE\10.0.18362.0\UCRT\CORECRT_WSTDIO.H
C:\PROGRAM FILES (X86)\WINDOWS KITS\10\INCLUDE\10.0.18362.0\UCRT\CORECRT_STDIO_CONFIG.H
C:\PROGRAM FILES (X86)\WINDOWS KITS\10\INCLUDE\10.0.18362.0\UCRT\STDLIB.H
C:\PROGRAM FILES (X86)\WINDOWS KITS\10\INCLUDE\10.0.18362.0\UCRT\CORECRT_MALLOC.H
C:\PROGRAM FILES (X86)\WINDOWS KITS\10\INCLUDE\10.0.18362.0\UCRT\CORECRT_SEARCH.H
C:\PROGRAM FILES (X86)\WINDOWS KITS\10\INCLUDE\10.0.18362.0\UCRT\STDDEF.H
C:\PROGRAM FILES (X86)\WINDOWS KITS\10\INCLUDE\10.0.18362.0\UCRT\CORECRT_WSTDLIB.H
D:\VISUAL_STUDIO\VC\TOOLS\MSVC\14.24.28314\INCLUDE\LIMITS.H
C:\PROGRAM FILES (X86)\WINDOWS KITS\10\INCLUDE\10.0.18362.0\UCRT\STRING.H
C:\PROGRAM FILES (X86)\WINDOWS KITS\10\INCLUDE\10.0.18362.0\UCRT\CORECRT_MEMORY.H
C:\PROGRAM FILES (X86)\WINDOWS KITS\10\INCLUDE\10.0.18362.0\UCRT\CORECRT_MEMCPY_S.H
C:\PROGRAM FILES (X86)\WINDOWS KITS\10\INCLUDE\10.0.18362.0\UCRT\ERRNO.H
D:\VISUAL_STUDIO\VC\TOOLS\MSVC\14.24.28314\INCLUDE\VCRUNTIME_STRING.H
C:\PROGRAM FILES (X86)\WINDOWS KITS\10\INCLUDE\10.0.18362.0\UCRT\CORECRT_WSTRING.H
D:\VISUAL_STUDIO\VC\TOOLS\MSVC\14.24.28314\INCLUDE\CLIMITS
D:\VISUAL_STUDIO\VC\TOOLS\MSVC\14.24.28314\INCLUDE\YVALS_CORE.H
D:\VISUAL_STUDIO\VC\TOOLS\MSVC\14.24.28314\INCLUDE\XKEYCHECK.H
^C:\USERS\Владелец\SOURCE\REPOS\LAB4_SAOD\LAB4_SAOD\MAIN.CPP
D:\VISUAL_STUDIO\VC\TOOLS\MSVC\14.24.28314\INCLUDE\IOSTREAM
D:\VISUAL_STUDIO\VC\TOOLS\MSVC\14.24.28314\INCLUDE\YVALS_CORE.H
D:\VISUAL_STUDIO\VC\TOOLS\MSVC\14.24.28314\INCLUDE\VCRUNTIME.H
D:\VISUAL_STUDIO\VC\TOOLS\MSVC\14.24.28314\INCLUDE\SAL.H
D:\VISUAL_STUDIO\VC\TOOLS\MSVC\14.24.28314\INCLUDE\CONCURRENCYSAL.H
D:\VISUAL_STUDIO\VC\TOOLS\MSVC\14.24.28314\INCLUDE\VADEFS.H
D:\VISUAL_STUDIO\VC\TOOLS\MSVC\14.24.28314\INCLUDE\XKEYCHECK.H
D:\VISUAL_STUDIO\VC\TOOLS\MSVC\14.24.28314\INCLUDE\ISTREAM
D:\VISUAL_STUDIO\VC\TOOLS\MSVC\14.24.28314\INCLUDE\OSTREAM
D:\VISUAL_STUDIO\VC\TOOLS\MSVC\14.24.28314\INCLUDE\IOS
D:\VISUAL_STUDIO\VC\TOOLS\MSVC\14.24.28314\INCLUDE\XLOCNUM
D:\VISUAL_STUDIO\VC\TOOLS\MSVC\14.24.28314\INCLUDE\CLIMITS
D:\VISUAL_STUDIO\VC\TOOLS\MSVC\14.24.28314\INCLUDE\LIMITS.H
D:\VISUAL_STUDIO\VC\TOOLS\MSVC\14.24.28314\INCLUDE\CMATH
D:\VISUAL_STUDIO\VC\TOOLS\MSVC\14.24.28314\INCLUDE\YVALS.H
C:\PROGRAM FILES (X86)\WINDOWS KITS\10\INCLUDE\10.0.18362.0\UCRT\CRTDBG.H
C:\PROGRAM FILES (X86)\WINDOWS KITS\10\INCLUDE\10.0.18362.0\UCRT\CORECRT.H
D:\VISUAL_STUDIO\VC\TOOLS\MSVC\14.24.28314\INCLUDE\VCRUNTIME_NEW_DEBUG.H
D:\VISUAL_STUDIO\VC\TOOLS\MSVC\14.24.28314\INCLUDE\VCRUNTIME_NEW.H
D:\VISUAL_STUDIO\VC\TOOLS\MSVC\14.24.28314\INCLUDE\CRTDEFS.H
D:\VISUAL_STUDIO\VC\TOOLS\MSVC\14.24.28314\INCLUDE\USE_ANSI.H
D:\VISUAL_STUDIO\VC\TOOLS\MSVC\14.24.28314\INCLUDE\CSTDLIB
C:\PROGRAM FILES (X86)\WINDOWS KITS\10\INCLUDE\10.0.18362.0\UCRT\MATH.H
C:\PROGRAM FILES (X86)\WINDOWS KITS\10\INCLUDE\10.0.18362.0\UCRT\CORECRT_MATH.H
C:\PROGRAM FILES (X86)\WINDOWS KITS\10\INCLUDE\10.0.18362.0\UCRT\STDLIB.H
C:\PROGRAM FILES (X86)\WINDOWS KITS\10\INCLUDE\10.0.18362.0\UCRT\CORECRT_MALLOC.H
C:\PROGRAM FILES (X86)\WINDOWS KITS\10\INCLUDE\10.0.18362.0\UCRT\CORECRT_SEARCH.H
C:\PROGRAM FILES (X86)\WINDOWS KITS\10\INCLUDE\10.0.18362.0\UCRT\STDDEF.H
C:\PROGRAM FILES (X86)\WINDOWS KITS\10\INCLUDE\10.0.18362.0\UCRT\CORECRT_WSTDLIB.H
D:\VISUAL_STUDIO\VC\TOOLS\MSVC\14.24.28314\INCLUDE\XTGMATH.H
D:\VISUAL_STUDIO\VC\TOOLS\MSVC\14.24.28314\INCLUDE\XTR1COMMON
D:\VISUAL_STUDIO\VC\TOOLS\MSVC\14.24.28314\INCLUDE\CSTDIO
C:\PROGRAM FILES (X86)\WINDOWS KITS\10\INCLUDE\10.0.18362.0\UCRT\STDIO.H
C:\PROGRAM FILES (X86)\WINDOWS KITS\10\INCLUDE\10.0.18362.0\UCRT\CORECRT_WSTDIO.H
C:\PROGRAM FILES (X86)\WINDOWS KITS\10\INCLUDE\10.0.18362.0\UCRT\CORECRT_STDIO_CONFIG.H
D:\VISUAL_STUDIO\VC\TOOLS\MSVC\14.24.28314\INCLUDE\STREAMBUF
D:\VISUAL_STUDIO\VC\TOOLS\MSVC\14.24.28314\INCLUDE\XIOSBASE
C:\PROGRAM FILES (X86)\WINDOWS KITS\10\INCLUDE\10.0.18362.0\UCRT\SHARE.H
C:\PROGRAM FILES (X86)\WINDOWS KITS\10\INCLUDE\10.0.18362.0\UCRT\CORECRT_SHARE.H
D:\VISUAL_STUDIO\VC\TOOLS\MSVC\14.24.28314\INCLUDE\SYSTEM_ERROR
D:\VISUAL_STUDIO\VC\TOOLS\MSVC\14.24.28314\INCLUDE\CERRNO
C:\PROGRAM FILES (X86)\WINDOWS KITS\10\INCLUDE\10.0.18362.0\UCRT\ERRNO.H
D:\VISUAL_STUDIO\VC\TOOLS\MSVC\14.24.28314\INCLUDE\STDEXCEPT
D:\VISUAL_STUDIO\VC\TOOLS\MSVC\14.24.28314\INCLUDE\EXCEPTION
D:\VISUAL_STUDIO\VC\TOOLS\MSVC\14.24.28314\INCLUDE\TYPE_TRAITS
D:\VISUAL_STUDIO\VC\TOOLS\MSVC\14.24.28314\INCLUDE\XSTDDEF
D:\VISUAL_STUDIO\VC\TOOLS\MSVC\14.24.28314\INCLUDE\CSTDDEF
D:\VISUAL_STUDIO\VC\TOOLS\MSVC\14.24.28314\INCLUDE\INITIALIZER_LIST
C:\PROGRAM FILES (X86)\WINDOWS KITS\10\INCLUDE\10.0.18362.0\UCRT\MALLOC.H
D:\VISUAL_STUDIO\VC\TOOLS\MSVC\14.24.28314\INCLUDE\VCRUNTIME_EXCEPTION.H
D:\VISUAL_STUDIO\VC\TOOLS\MSVC\14.24.28314\INCLUDE\EH.H
C:\PROGRAM FILES (X86)\WINDOWS KITS\10\INCLUDE\10.0.18362.0\UCRT\CORECRT_TERMINATE.H
D:\VISUAL_STUDIO\VC\TOOLS\MSVC\14.24.28314\INCLUDE\XSTRING
D:\VISUAL_STUDIO\VC\TOOLS\MSVC\14.24.28314\INCLUDE\IOSFWD
D:\VISUAL_STUDIO\VC\TOOLS\MSVC\14.24.28314\INCLUDE\CSTRING
C:\PROGRAM FILES (X86)\WINDOWS KITS\10\INCLUDE\10.0.18362.0\UCRT\STRING.H
C:\PROGRAM FILES (X86)\WINDOWS KITS\10\INCLUDE\10.0.18362.0\UCRT\CORECRT_MEMORY.H
C:\PROGRAM FILES (X86)\WINDOWS KITS\10\INCLUDE\10.0.18362.0\UCRT\CORECRT_MEMCPY_S.H
D:\VISUAL_STUDIO\VC\TOOLS\MSVC\14.24.28314\INCLUDE\VCRUNTIME_STRING.H
C:\PROGRAM FILES (X86)\WINDOWS KITS\10\INCLUDE\10.0.18362.0\UCRT\CORECRT_WSTRING.H
D:\VISUAL_STUDIO\VC\TOOLS\MSVC\14.24.28314\INCLUDE\CWCHAR
C:\PROGRAM FILES (X86)\WINDOWS KITS\10\INCLUDE\10.0.18362.0\UCRT\WCHAR.H
C:\PROGRAM FILES (X86)\WINDOWS KITS\10\INCLUDE\10.0.18362.0\UCRT\CORECRT_WCONIO.H
C:\PROGRAM FILES (X86)\WINDOWS KITS\10\INCLUDE\10.0.18362.0\UCRT\CORECRT_WCTYPE.H
C:\PROGRAM FILES (X86)\WINDOWS KITS\10\INCLUDE\10.0.18362.0\UCRT\CORECRT_WDIRECT.H
C:\PROGRAM FILES (X86)\WINDOWS KITS\10\INCLUDE\10.0.18362.0\UCRT\CORECRT_WIO.H
C:\PROGRAM FILES (X86)\WINDOWS KITS\10\INCLUDE\10.0.18362.0\UCRT\CORECRT_WPROCESS.H
C:\PROGRAM FILES (X86)\WINDOWS KITS\10\INCLUDE\10.0.18362.0\UCRT\CORECRT_WTIME.H
C:\PROGRAM FILES (X86)\WINDOWS KITS\10\INCLUDE\10.0.18362.0\UCRT\SYS\STAT.H
C:\PROGRAM FILES (X86)\WINDOWS KITS\10\INCLUDE\10.0.18362.0\UCRT\SYS\TYPES.H
D:\VISUAL_STUDIO\VC\TOOLS\MSVC\14.24.28314\INCLUDE\XMEMORY
D:\VISUAL_STUDIO\VC\TOOLS\MSVC\14.24.28314\INCLUDE\CSTDINT
D:\VISUAL_STUDIO\VC\TOOLS\MSVC\14.24.28314\INCLUDE\STDINT.H
D:\VISUAL_STUDIO\VC\TOOLS\MSVC\14.24.28314\INCLUDE\LIMITS
D:\VISUAL_STUDIO\VC\TOOLS\MSVC\14.24.28314\INCLUDE\CFLOAT
C:\PROGRAM FILES (X86)\WINDOWS KITS\10\INCLUDE\10.0.18362.0\UCRT\FLOAT.H
D:\VISUAL_STUDIO\VC\TOOLS\MSVC\14.24.28314\INCLUDE\NEW
D:\VISUAL_STUDIO\VC\TOOLS\MSVC\14.24.28314\INCLUDE\XATOMIC.H
D:\VISUAL_STUDIO\VC\TOOLS\MSVC\14.24.28314\INCLUDE\INTRIN0.H
D:\VISUAL_STUDIO\VC\TOOLS\MSVC\14.24.28314\INCLUDE\XUTILITY
D:\VISUAL_STUDIO\VC\TOOLS\MSVC\14.24.28314\INCLUDE\UTILITY
D:\VISUAL_STUDIO\VC\TOOLS\MSVC\14.24.28314\INCLUDE\XCALL_ONCE.H
D:\VISUAL_STUDIO\VC\TOOLS\MSVC\14.24.28314\INCLUDE\XERRC.H
D:\VISUAL_STUDIO\VC\TOOLS\MSVC\14.24.28314\INCLUDE\XLOCALE
D:\VISUAL_STUDIO\VC\TOOLS\MSVC\14.24.28314\INCLUDE\MEMORY
D:\VISUAL_STUDIO\VC\TOOLS\MSVC\14.24.28314\INCLUDE\TYPEINFO
D:\VISUAL_STUDIO\VC\TOOLS\MSVC\14.24.28314\INCLUDE\VCRUNTIME_TYPEINFO.H
D:\VISUAL_STUDIO\VC\TOOLS\MSVC\14.24.28314\INCLUDE\XFACET
D:\VISUAL_STUDIO\VC\TOOLS\MSVC\14.24.28314\INCLUDE\XLOCINFO
D:\VISUAL_STUDIO\VC\TOOLS\MSVC\14.24.28314\INCLUDE\XLOCINFO.H
C:\PROGRAM FILES (X86)\WINDOWS KITS\10\INCLUDE\10.0.18362.0\UCRT\CTYPE.H
C:\PROGRAM FILES (X86)\WINDOWS KITS\10\INCLUDE\10.0.18362.0\UCRT\LOCALE.H
C:\USERS\Владелец\SOURCE\REPOS\LAB4_SAOD\LAB4_SAOD\HASH_LIST.H
